name,Marian
tiempo_respuesta_min,10
tiempo_respuesta_max,100
tiempo_mensaje_iddle_min,40
tiempo_mensaje_iddle_max,200
mensaje_en_historial,46
mensajes iddle,9-10-17-11-12-13-18-14-15-19-16
respuestas,
1,20-21-22-23
2,22-23-24-25-26
3,27-28-29-31
4,34-31
5,28-39-30-31-24-21
6,32-33-34
7,35-34
8,34-29-31