name,Andy
tiempo_respuesta_min,20
tiempo_respuesta_max,60
tiempo_mensaje_iddle_min,20
tiempo_mensaje_iddle_max,70
mensaje_en_historial,47
mensajes iddle,61-62-63-64-65-66-67-68-69-70-71-72-105-106-107-108-109-110-111
respuestas NPC,
1,112-113-114-115-62
2,116-117-118
5,119-120
6,121-122-123
7,124-125-126
8,127-128-129